^C:\USERS\TOBSE\SOURCE\REPOS\STABLE OPENGL TEMPLATE1\STABLE OPENGL TEMPLATE1\MAIN.CPP
C:\USERS\TOBSE\SOURCE\REPOS\STABLE OPENGL TEMPLATE1\STABLE OPENGL TEMPLATE1\DEBUG\VC142.PDB
C:\USERS\TOBSE\SOURCE\REPOS\STABLE OPENGL TEMPLATE1\STABLE OPENGL TEMPLATE1\DEBUG\VC142.IDB
C:\USERS\TOBSE\SOURCE\REPOS\STABLE OPENGL TEMPLATE1\STABLE OPENGL TEMPLATE1\DEBUG\MAIN.OBJ
